{
  "name": "Affiliate Tracking",
  "sources": [
    {
      "source": "https://raw.githubusercontent.com/Zelo72/rpi/master/pihole/blocklists/affiliatetracking.txt",
      "type": "hosts",
      "transformations": [
        "RemoveComments",
        "Compress"
      ]
    }
  ]
}